R and QGIS – Introduction to mapping and spatial analysis with R
…
# Verify that qgisprocess can find your QGIS installation
qgis_path()

[1] "/Applications/QGIS-4.0.1.app/Contents/MacOS/qgis_process"

qgis_version()

[1] "4.0.1-Norrköping"

Discovering available algorithms

# List all available algorithms
qgis_algorithms()

# A tibble: 756 × 25
   provider provider_title algorithm                algorithm_id algorithm_title
   <chr>    <chr>          <chr>                    <chr>        <chr>          
 1 3d       QGIS (3D)      3d:tessellate            tessellate   Tessellate     
 2 gdal     GDAL           gdal:aspect              aspect       Aspect         
 3 gdal     GDAL           gdal:assignprojection    assignproje… Assign project…
 4 gdal     GDAL           gdal:buffervectors       buffervecto… Buffer vectors 
 5 gdal     GDAL           gdal:buildvirtualraster  buildvirtua… Build virtual …
 6 gdal     GDAL           gdal:buildvirtualvector  buildvirtua… Build virtual …
 7 gdal     GDAL           gdal:cliprasterbyextent  cliprasterb… Clip raster by…
 8 gdal     GDAL           gdal:cliprasterbymaskla… cliprasterb… Clip raster by…
 9 gdal     GDAL           gdal:clipvectorbyextent  clipvectorb… Clip vector by…
10 gdal     GDAL           gdal:clipvectorbypolygon clipvectorb… Clip vector by…
# ℹ 746 more rows
# ℹ 20 more variables: provider_can_be_activated <lgl>,
#   provider_is_active <lgl>, provider_long_name <chr>, provider_version <chr>,
#   provider_warning <chr>, can_cancel <lgl>, deprecated <lgl>, group <chr>,
#   has_known_issues <lgl>, help_url <chr>, requires_matching_crs <lgl>,
#   short_description <chr>, tags <list>, default_raster_file_format <chr>,
#   default_raster_file_extension <chr>, default_vector_file_extension <chr>, …
…
