Simple features – Introduction to mapping and spatial analysis with R
…
Both functions read spatial data. read_sf() is a tidyverse-friendly wrapper around st_read() with better defaults: it returns a tibble, does not convert strings to factors, and prints output more quietly. Prefer read_sf() for new work.

Inspecting an sf object

When you print an sf object, the header shows the key metadata before the data:

nfu

Simple feature collection with 30 features and 2 fields
Geometry type: POLYGON
Dimension:     XY
Bounding box:  xmin: -15 ymin: 36.5 xmax: 13 ymax: 62
Geodetic CRS:  WGS 84
# A tibble: 30 × 3
   name                           fu                                        geom
   <chr>                          <chr>                            <POLYGON [°]>
 1 Noup                           10    ((-4 59, -4 59.5, -3 59.5, -3 59, -4 59…
 2 North Minch                    11    ((-6 57.5, -7 57.5, -7 58, -7 58.5, -7 …
 3 South Minch                    12    ((-7 56, -8 56, -8 56.5, -8 57, -8 57.5…
 4 Firth of Clyde + Sound of Jura 13    ((-5 55, -6 55, -6 55.5, -6 56, -5 56, …
 5 Irish Sea East                 14    ((-3 54.5, -3 54, -3 53.5, -3 53, -4 53…
 6 Irish Sea West                 15    ((-5 55, -5 54.5, -4 54.5, -4 54, -4 53…
 7 Procupine Bank                 16    ((-14 51, -15 51, -15 51.5, -15 52, -15…
 8 Aran Grounds                   17    ((-10 52.5, -11 52.5, -11 53, -11 53.5,…
 9 Ireland SW and SE coast        19    ((-7 52, -7 51.5, -8 51.5, -8 51, -9 51…
10 Celtic Sea – Labadie           20-21 ((-7 51.5, -7 51, -6 51, -6 50.5, -7 50…
# ℹ 20 more rows
…
[1] "spec_tbl_df" "tbl_df"      "tbl"         "data.frame" 

smb_sf <- smb |>
  st_as_sf(coords = c("lon1", "lat1"), crs = 4326)

smb_sf

Simple feature collection with 19846 features and 26 fields
Geometry type: POINT
Dimension:     XY
Bounding box:  xmin: -27.25017 ymin: 62.78067 xmax: -10.34 ymax: 67.33767
Geodetic CRS:  WGS 84
# A tibble: 19,846 × 27
      id date        year   vid tow_id t1                  t2                 
 * <dbl> <date>     <dbl> <dbl> <chr>  <dttm>              <dttm>             
 1 44929 1990-03-16  1990  1307 670-15 1990-03-16 05:05:00 1990-03-16 06:05:00
 2 44928 1990-03-16  1990  1307 670-13 1990-03-16 07:48:00 1990-03-16 08:51:00
 3 44927 1990-03-16  1990  1307 670-12 1990-03-16 09:35:00 1990-03-16 10:49:00
 4 44926 1990-03-16  1990  1307 670-1  1990-03-16 11:31:00 1990-03-16 12:31:00
 5 44925 1990-03-16  1990  1307 670-2  1990-03-16 13:06:00 1990-03-16 14:05:00
 6 44922 1990-03-16  1990  1307 720-1  1990-03-16 20:21:00 1990-03-16 21:20:00
 7 44921 1990-03-16  1990  1307 720-11 1990-03-16 21:49:00 1990-03-16 22:50:00
 8 44920 1990-03-17  1990  1307 720-13 1990-03-17 00:16:00 1990-03-17 01:20:00
 9 44919 1990-03-17  1990  1307 720-12 1990-03-17 02:18:00 1990-03-17 03:20:00
10 44918 1990-03-17  1990  1307 670-14 1990-03-17 05:23:00 1990-03-17 06:25:00
# ℹ 19,836 more rows
# ℹ 20 more variables: lon2 <dbl>, lat2 <dbl>, ir <chr>, ir_lon <dbl>,
#   ir_lat <dbl>, z1 <dbl>, z2 <dbl>, temp_s <dbl>, temp_b <dbl>, speed <dbl>,
#   duration <dbl>, towlength <dbl>, horizontal <dbl>, verical <dbl>,
#   wind <dbl>, wind_direction <dbl>, bormicon <dbl>, oldstrata <dbl>,
#   newstrata <dbl>, geometry <POINT [°]>
…
