Spatial operations with sf objects – Introduction to mapping and spatial analysis with R
…
Points into polygons

The most common case: assign a polygon attribute (such as a region name) to each point that falls within it.

# Add the NFU name to each Nephrops station
nephrops_joined <- nephrops |>
  st_join(nfu |> select(nfu_name = name),
          join = st_within)

# Stations outside all NFUs get NA
nephrops_joined |>
  st_drop_geometry() |>
  count(nfu_name, sort = TRUE)

# A tibble: 24 × 2
   nfu_name                    n
   <chr>                   <int>
 1 Irish Sea West             46
 2 <NA>                       46
 3 Kattegat                   39
 4 Procupine Bank             34
 5 Skagerrak                  27
 6 Fladen Ground              22
 7 Botney Gut – Silver Pit    16
 8 Gulf of Cadiz              15
 9 Irish Sea East             13
10 Off Horn’s Reef            13
# ℹ 14 more rows
…
Counting points in polygons

A very common task is counting how many points from one layer fall within each polygon of another. Spatial join followed by count() is the cleanest approach:

station_counts <- nephrops |>
  st_join(nfu |> select(nfu_name = name), join = st_within) |>
  st_drop_geometry() |>           # Drop geometry before summarising
  count(nfu_name, name = "n_stations") |>
  filter(!is.na(nfu_name)) |>     # Remove stations not in any NFU
  arrange(desc(n_stations))

station_counts

# A tibble: 23 × 2
   nfu_name                n_stations
   <chr>                        <int>
 1 Irish Sea West                  46
 2 Kattegat                        39
 3 Procupine Bank                  34
 4 Skagerrak                       27
 5 Fladen Ground                   22
 6 Botney Gut – Silver Pit         16
 7 Gulf of Cadiz                   15
 8 Irish Sea East                  13
 9 Off Horn’s Reef                 13
10 Farn Deeps                      12
# ℹ 13 more rows
…
